-------------------------------------------------------------------------------
Test set: com.javasampleapproach.angularjpamysql.SpringJpaMySqlAngularJsApplicationTests
-------------------------------------------------------------------------------
Tests run: 1, Failures: 0, Errors: 0, Skipped: 0, Time elapsed: 6.497 sec - in com.javasampleapproach.angularjpamysql.SpringJpaMySqlAngularJsApplicationTests
